{
	"compiler": {
		"version": "0.8.7+commit.e28d00a7"
	},
	"language": "Solidity",
	"output": {
		"abi": [
			{
				"inputs": [],
				"stateMutability": "nonpayable",
				"type": "constructor"
			},
			{
				"inputs": [
					{
						"internalType": "enum Attribute.AttrType",
						"name": "attributeType",
						"type": "uint8"
					},
					{
						"internalType": "int256",
						"name": "attributeAddedValue",
						"type": "int256"
					},
					{
						"internalType": "string",
						"name": "description",
						"type": "string"
					}
				],
				"name": "addAttribute",
				"outputs": [
					{
						"internalType": "bool",
						"name": "",
						"type": "bool"
					}
				],
				"stateMutability": "nonpayable",
				"type": "function"
			},
			{
				"inputs": [],
				"name": "admin",
				"outputs": [
					{
						"internalType": "address",
						"name": "",
						"type": "address"
					}
				],
				"stateMutability": "view",
				"type": "function"
			},
			{
				"inputs": [],
				"name": "approveOwnership",
				"outputs": [
					{
						"internalType": "bool",
						"name": "",
						"type": "bool"
					}
				],
				"stateMutability": "nonpayable",
				"type": "function"
			},
			{
				"inputs": [
					{
						"internalType": "uint256",
						"name": "",
						"type": "uint256"
					}
				],
				"name": "attributes",
				"outputs": [
					{
						"internalType": "contract Attribute",
						"name": "",
						"type": "address"
					}
				],
				"stateMutability": "view",
				"type": "function"
			},
			{
				"inputs": [],
				"name": "blockOwnership",
				"outputs": [
					{
						"internalType": "bool",
						"name": "",
						"type": "bool"
					}
				],
				"stateMutability": "nonpayable",
				"type": "function"
			},
			{
				"inputs": [],
				"name": "buyer",
				"outputs": [
					{
						"internalType": "address",
						"name": "",
						"type": "address"
					}
				],
				"stateMutability": "view",
				"type": "function"
			},
			{
				"inputs": [],
				"name": "cancelSale",
				"outputs": [
					{
						"internalType": "bool",
						"name": "",
						"type": "bool"
					}
				],
				"stateMutability": "nonpayable",
				"type": "function"
			},
			{
				"inputs": [],
				"name": "getAddedLandValue",
				"outputs": [
					{
						"internalType": "int256",
						"name": "",
						"type": "int256"
					}
				],
				"stateMutability": "view",
				"type": "function"
			},
			{
				"inputs": [
					{
						"internalType": "uint256",
						"name": "index",
						"type": "uint256"
					}
				],
				"name": "getAttribute",
				"outputs": [
					{
						"internalType": "contract Attribute",
						"name": "",
						"type": "address"
					}
				],
				"stateMutability": "nonpayable",
				"type": "function"
			},
			{
				"inputs": [],
				"name": "getBaseLandvalue",
				"outputs": [
					{
						"internalType": "uint256",
						"name": "",
						"type": "uint256"
					}
				],
				"stateMutability": "view",
				"type": "function"
			},
			{
				"inputs": [],
				"name": "getLandAddress",
				"outputs": [
					{
						"internalType": "string",
						"name": "",
						"type": "string"
					}
				],
				"stateMutability": "view",
				"type": "function"
			},
			{
				"inputs": [],
				"name": "getLandValue",
				"outputs": [
					{
						"internalType": "int256",
						"name": "",
						"type": "int256"
					}
				],
				"stateMutability": "view",
				"type": "function"
			},
			{
				"inputs": [],
				"name": "landAddress",
				"outputs": [
					{
						"internalType": "string",
						"name": "",
						"type": "string"
					}
				],
				"stateMutability": "view",
				"type": "function"
			},
			{
				"inputs": [],
				"name": "owner",
				"outputs": [
					{
						"internalType": "address",
						"name": "",
						"type": "address"
					}
				],
				"stateMutability": "view",
				"type": "function"
			},
			{
				"inputs": [
					{
						"internalType": "uint256",
						"name": "indexToDelete",
						"type": "uint256"
					}
				],
				"name": "removeAttribute",
				"outputs": [
					{
						"internalType": "bool",
						"name": "",
						"type": "bool"
					}
				],
				"stateMutability": "nonpayable",
				"type": "function"
			},
			{
				"inputs": [],
				"name": "requestLandValuation",
				"outputs": [],
				"stateMutability": "nonpayable",
				"type": "function"
			},
			{
				"inputs": [],
				"name": "requestOwnership",
				"outputs": [
					{
						"internalType": "bool",
						"name": "",
						"type": "bool"
					}
				],
				"stateMutability": "nonpayable",
				"type": "function"
			},
			{
				"inputs": [],
				"name": "requestSale",
				"outputs": [
					{
						"internalType": "bool",
						"name": "",
						"type": "bool"
					}
				],
				"stateMutability": "nonpayable",
				"type": "function"
			},
			{
				"inputs": [
					{
						"internalType": "string",
						"name": "landAddressInput",
						"type": "string"
					}
				],
				"name": "setLandAddress",
				"outputs": [
					{
						"internalType": "uint256",
						"name": "",
						"type": "uint256"
					}
				],
				"stateMutability": "nonpayable",
				"type": "function"
			},
			{
				"inputs": [],
				"name": "taxOracle",
				"outputs": [
					{
						"internalType": "contract TaxOracle",
						"name": "",
						"type": "address"
					}
				],
				"stateMutability": "view",
				"type": "function"
			},
			{
				"inputs": [],
				"name": "taxValue",
				"outputs": [
					{
						"internalType": "uint256",
						"name": "",
						"type": "uint256"
					}
				],
				"stateMutability": "view",
				"type": "function"
			},
			{
				"inputs": [
					{
						"internalType": "int256",
						"name": "newBaseValue",
						"type": "int256"
					}
				],
				"name": "updateBaseLandValue",
				"outputs": [
					{
						"internalType": "bool",
						"name": "",
						"type": "bool"
					}
				],
				"stateMutability": "nonpayable",
				"type": "function"
			},
			{
				"inputs": [
					{
						"internalType": "uint256",
						"name": "tax",
						"type": "uint256"
					}
				],
				"name": "updateTaxValue",
				"outputs": [
					{
						"internalType": "uint256",
						"name": "",
						"type": "uint256"
					}
				],
				"stateMutability": "nonpayable",
				"type": "function"
			},
			{
				"inputs": [],
				"name": "valueOracle",
				"outputs": [
					{
						"internalType": "contract ValueOracle",
						"name": "",
						"type": "address"
					}
				],
				"stateMutability": "view",
				"type": "function"
			}
		],
		"devdoc": {
			"kind": "dev",
			"methods": {
				"addAttribute(uint8,int256,string)": {
					"params": {
						"attributeAddedValue": "the added value of the attribute - can be negative or positive",
						"attributeType": "the type enum of the newly added attribute",
						"description": "A string description of the attribute"
					},
					"returns": {
						"_0": "a boolean indicating whether the function executed correctly"
					}
				},
				"getAddedLandValue()": {
					"returns": {
						"_0": "integer denoting the added value"
					}
				},
				"getAttribute(uint256)": {
					"params": {
						"index": "the given index we are fetching from the list of attributes"
					},
					"returns": {
						"_0": "an Attribute contract object"
					}
				},
				"getBaseLandvalue()": {
					"returns": {
						"_0": "an insigne integer denoting the base value"
					}
				},
				"getLandValue()": {
					"returns": {
						"_0": "unsigned integer denoting the value of the land address"
					}
				},
				"removeAttribute(uint256)": {
					"params": {
						"indexToDelete": "the index which we are deleting from the list of attributes"
					},
					"returns": {
						"_0": "boolean indicating the outcome of the function"
					}
				},
				"updateBaseLandValue(int256)": {
					"params": {
						"newBaseValue": "the new base land value"
					},
					"returns": {
						"_0": "boolean indicating whether or not the function was successful"
					}
				}
			},
			"title": "Contract defining a land title",
			"version": 1
		},
		"userdoc": {
			"kind": "user",
			"methods": {
				"addAttribute(uint8,int256,string)": {
					"notice": "adds a new attribute to the land title and then adds to the addedvalue of the land title"
				},
				"approveOwnership()": {
					"notice": "Initiated when there is a buyer ready to purchase the land title and the owner wants to approve - Set the new owner to the buyer of the land title - Set the current buyer to a null address - Set the state of the land title to not for sale"
				},
				"blockOwnership()": {
					"notice": "Initiated when the owner has noit received funds or if suspected ownership theft"
				},
				"cancelSale()": {
					"notice": "Initiated when the owner wishes to terminate the sale of a land title"
				},
				"getAddedLandValue()": {
					"notice": "returns the added value of the land title"
				},
				"getAttribute(uint256)": {
					"notice": "this method gets the attribute at the given index"
				},
				"getBaseLandvalue()": {
					"notice": "returns the base value of the land title"
				},
				"getLandValue()": {
					"notice": "Generally Implemented after request to the oracle has taken place.  Returns the value of the land title"
				},
				"removeAttribute(uint256)": {
					"notice": "removes an attribute at the given index"
				},
				"requestOwnership()": {
					"notice": "Initiated when a buyer wishes to purchase this land title - If the buyer field is already full, don't accept any other purchase offers - If the user requesting ownership is already the owner, don't accept the purchase offer - Set the sender as the new buyer - Set the state to be purchasable"
				},
				"requestSale()": {
					"notice": "Initiated when the owner wishes to mark this land title for sale  - Set the state to on sale for buyers to be able to view"
				},
				"updateBaseLandValue(int256)": {
					"notice": "updates the value of the land title based on the given integer, only executable via land oracle"
				}
			},
			"version": 1
		}
	},
	"settings": {
		"compilationTarget": {
			"contracts/contract-land-title/LandTitle.sol": "LandTitle"
		},
		"evmVersion": "london",
		"libraries": {},
		"metadata": {
			"bytecodeHash": "ipfs"
		},
		"optimizer": {
			"enabled": false,
			"runs": 200
		},
		"remappings": []
	},
	"sources": {
		"contracts/contract-attribute/Attribute.sol": {
			"keccak256": "0x55bfe604cc87630b68019b64635d45f1357085304d8a2d90f9dd8c22cfc55587",
			"license": "UNLICENSED",
			"urls": [
				"bzz-raw://d146f1c0e898dd1918a7d69098b1d376b6543e4f7559593e6a3cdd3e7a082069",
				"dweb:/ipfs/QmT6aEv792e5mQdo2xCAU8U6Hmo61CxWQB8StpNjv82SvZ"
			]
		},
		"contracts/contract-land-title/LandTitle.sol": {
			"keccak256": "0xbd003a2fb26956266c0345ec23eaf4a2c06dfce854776ac109d47783a4bbd3f1",
			"license": "UNLICENSED",
			"urls": [
				"bzz-raw://a6d394c45ab020a6d6706f6f38caf09a40adf3b8af7325e5f125a0d03759c8d2",
				"dweb:/ipfs/QmUtEepvqA52jnNYyRHJkSQeAybYzwRZi1CnqaZxiUHw2J"
			]
		},
		"contracts/contract-tax-oracle/TaxOracle.sol": {
			"keccak256": "0xd98048b70e9a339616d00cdff9aa58434ed11f3e22cc2f173bcc0396f1ff9b14",
			"license": "UNLICENSED",
			"urls": [
				"bzz-raw://74724d3ce5fcda9c94393c4247daf11f2d9c14d4a83d3615029c7140a980b256",
				"dweb:/ipfs/QmeoEXEYn9671p6FgNiyq2TDAj57mjUt4xhjppMuNKE3gD"
			]
		},
		"contracts/contract-value-oracle/ValueOracle.sol": {
			"keccak256": "0x70bf3c8aa94d6b3beca2dc33ac30674efb66732f999c6c050c4854ad56685123",
			"license": "UNLICENSED",
			"urls": [
				"bzz-raw://1b8b16560dff5b6218341df451b79bde40280c15a28c987600d59461e8efe66d",
				"dweb:/ipfs/QmcCh9HH9CfhraD7LYqt8eK9Z4RLX75VSGMpZwd97RMvA7"
			]
		}
	},
	"version": 1
}